{"componentChunkName":"component---src-templates-post-list-template-tsx","path":"/posts/list/2/","result":{"data":{"allMarkdownRemark":{"edges":[{"node":{"frontmatter":{"summary":"React + TypeScript + Rollup을 활용한 라이브러리 개발을 위한 환경셋팅","title":"React Rollup 라이브러리","date":"2024-01-18","category":["React"],"slug":"react-rollup-library","thumbnail":null}}},{"node":{"frontmatter":{"summary":"React-Hook-Form을 내 프로젝트에서 활용할 수 있는 방식에 대해 정리하자.","title":"React-Hook-Form 활용 방안","date":"2024-01-14","category":["React"],"slug":"react-hook-form","thumbnail":null}}},{"node":{"frontmatter":{"summary":"useEffect와 useLayoutEffect의 차이에 대해 아는가?","title":"useEffect vs useLayoutEffect","date":"2024-01-07","category":["React"],"slug":"react-use-effect-use-layout-effect","thumbnail":null}}},{"node":{"frontmatter":{"summary":"왜? 나는 React Query의 다양한 기능을 사용하지 않았는가?","title":"React Query 활용 방법","date":"2024-01-05","category":["React"],"slug":"react-tanstack-react-query","thumbnail":{"childImageSharp":{"gatsbyImageData":{"layout":"constrained","backgroundColor":"#080808","images":{"fallback":{"src":"/static/72bb0af17c541075f1e9135e349bff9d/e18bd/logo.png","srcSet":"/static/72bb0af17c541075f1e9135e349bff9d/d099a/logo.png 216w,\n/static/72bb0af17c541075f1e9135e349bff9d/50e54/logo.png 431w,\n/static/72bb0af17c541075f1e9135e349bff9d/e18bd/logo.png 862w","sizes":"(min-width: 862px) 862px, 100vw"},"sources":[{"srcSet":"/static/72bb0af17c541075f1e9135e349bff9d/546f7/logo.webp 216w,\n/static/72bb0af17c541075f1e9135e349bff9d/1207c/logo.webp 431w,\n/static/72bb0af17c541075f1e9135e349bff9d/78465/logo.webp 862w","type":"image/webp","sizes":"(min-width: 862px) 862px, 100vw"}]},"width":862,"height":750}},"publicURL":"/static/72bb0af17c541075f1e9135e349bff9d/logo.png"}}}},{"node":{"frontmatter":{"summary":"리액트 다양한 디자인 패턴에 대해 알아보자","title":"React Design 패턴","date":"2024-01-03","category":["React"],"slug":"react-design-patterns","thumbnail":null}}}],"pageInfo":{"perPage":5,"currentPage":2,"hasNextPage":true,"hasPreviousPage":true,"itemCount":5,"pageCount":4,"totalCount":16}}},"pageContext":{"limit":5,"skip":5,"numPage":4,"currentPage":2}},"staticQueryHashes":[],"slicesMap":{}}