{"componentChunkName":"component---src-templates-post-list-template-tsx","path":"/posts/list/1/","result":{"data":{"allMarkdownRemark":{"edges":[{"node":{"frontmatter":{"summary":"TypeScript Enum 다양한 활용법과 개념에 대한 정리","title":"TypeScript Enum(이넘)","date":"2024-04-14","category":["TypeScript"],"slug":"typescript-enum","thumbnail":{"childImageSharp":{"gatsbyImageData":{"layout":"constrained","backgroundColor":"#080808","images":{"fallback":{"src":"/static/72bb0af17c541075f1e9135e349bff9d/e18bd/logo.png","srcSet":"/static/72bb0af17c541075f1e9135e349bff9d/d099a/logo.png 216w,\n/static/72bb0af17c541075f1e9135e349bff9d/50e54/logo.png 431w,\n/static/72bb0af17c541075f1e9135e349bff9d/e18bd/logo.png 862w","sizes":"(min-width: 862px) 862px, 100vw"},"sources":[{"srcSet":"/static/72bb0af17c541075f1e9135e349bff9d/546f7/logo.webp 216w,\n/static/72bb0af17c541075f1e9135e349bff9d/1207c/logo.webp 431w,\n/static/72bb0af17c541075f1e9135e349bff9d/78465/logo.webp 862w","type":"image/webp","sizes":"(min-width: 862px) 862px, 100vw"}]},"width":862,"height":750}},"publicURL":"/static/72bb0af17c541075f1e9135e349bff9d/logo.png"}}}},{"node":{"frontmatter":{"summary":"Flutter에서 만난 에러와 해결 방법에 대한 기록","title":"Flutter에서 만난 에러","date":"2024-02-27","category":["Flutter"],"slug":"flutter-build-error-resolved","thumbnail":null}}},{"node":{"frontmatter":{"summary":"리액트 다양한 디자인 패턴에 대해 알아보자","title":"FSD 아키텍쳐","date":"2024-02-04","category":["React","개발"],"slug":"feature-sliced-design","thumbnail":null}}},{"node":{"frontmatter":{"summary":"함수형 프로그래밍에서 활용가능한 커링에 대해 알아보자","title":"커링","date":"2024-01-29","category":["JavaScript"],"slug":"currying-patterns","thumbnail":null}}},{"node":{"frontmatter":{"summary":"React + TypeScript + Rollup을 활용한 라이브러리 개발을 위한 환경셋팅","title":"React Rollup 라이브러리","date":"2024-01-18","category":["React"],"slug":"react-rollup-library","thumbnail":null}}}],"pageInfo":{"perPage":5,"currentPage":1,"hasNextPage":true,"hasPreviousPage":false,"itemCount":5,"pageCount":3,"totalCount":15}}},"pageContext":{"limit":5,"skip":0,"numPage":3,"currentPage":1}},"staticQueryHashes":[],"slicesMap":{}}