{"componentChunkName":"component---src-templates-post-list-template-tsx","path":"/posts/list/3/","result":{"data":{"allMarkdownRemark":{"edges":[{"node":{"frontmatter":{"summary":"React Recoil을 사용하면서 헷갈렸던 점","title":"Recoil 을 사용하면서","date":"2023-12-12","category":"React","slug":"react-recoil-study","thumbnail":{"childImageSharp":{"gatsbyImageData":{"layout":"constrained","backgroundColor":"#080808","images":{"fallback":{"src":"/static/72bb0af17c541075f1e9135e349bff9d/e18bd/logo.png","srcSet":"/static/72bb0af17c541075f1e9135e349bff9d/d099a/logo.png 216w,\n/static/72bb0af17c541075f1e9135e349bff9d/50e54/logo.png 431w,\n/static/72bb0af17c541075f1e9135e349bff9d/e18bd/logo.png 862w","sizes":"(min-width: 862px) 862px, 100vw"},"sources":[{"srcSet":"/static/72bb0af17c541075f1e9135e349bff9d/546f7/logo.webp 216w,\n/static/72bb0af17c541075f1e9135e349bff9d/1207c/logo.webp 431w,\n/static/72bb0af17c541075f1e9135e349bff9d/78465/logo.webp 862w","type":"image/webp","sizes":"(min-width: 862px) 862px, 100vw"}]},"width":862,"height":750}},"publicURL":"/static/72bb0af17c541075f1e9135e349bff9d/logo.png"}}}}],"pageInfo":{"perPage":5,"currentPage":3,"hasNextPage":false,"hasPreviousPage":true,"itemCount":1,"pageCount":3,"totalCount":11}}},"pageContext":{"limit":5,"skip":10,"numPage":3,"currentPage":3}},"staticQueryHashes":[],"slicesMap":{}}